%YAML 1.1
%TAG !u! tag:unity3d.com,2011:
--- !u!114 &11400000
MonoBehaviour:
  m_ObjectHideFlags: 0
  m_CorrespondingSourceObject: {fileID: 0}
  m_PrefabInstance: {fileID: 0}
  m_PrefabAsset: {fileID: 0}
  m_GameObject: {fileID: 0}
  m_Enabled: 1
  m_EditorHideFlags: 0
  m_Script: {fileID: 11500000, guid: d743528bee567f049ba5d534c2eba8d9, type: 3}
  m_Name: 12
  m_EditorClassIdentifier: 
  receiptName: "\u0421\u0443\u043F \u0449\u0438"
  ingridients:
  - name: "\u0432\u043E\u0434\u0430"
    icon: {fileID: 21300000, guid: 3572411435365614bafb73bbcdf02b0c, type: 3}
  - name: "\u043C\u044F\u0441\u043E"
    icon: {fileID: 21300000, guid: 1e0bd7eb2c65ba14686bc451f9f3314b, type: 3}
  - name: "\u043A\u0430\u043F\u0443\u0441\u0442\u0430"
    icon: {fileID: 21300000, guid: 3a0d8a5992017c341aa0607cede993a9, type: 3}
  - name: "\u043C\u043E\u0440\u043A\u043E\u0432\u044C"
    icon: {fileID: 21300000, guid: 46f3ef06beee6a74083dadcfee50d2b4, type: 3}
  - name: "\u043B\u0443\u043A"
    icon: {fileID: 21300000, guid: cb08ac1b29a537747bd152e23cdc19d6, type: 3}
  - name: "\u043A\u0430\u0440\u0442\u043E\u0448\u043A\u0430"
    icon: {fileID: 21300000, guid: 78af2e272b6e3b4458154346aa2151bc, type: 3}
  - name: "\u0447\u0435\u0441\u043D\u043E\u043A"
    icon: {fileID: 21300000, guid: d27120f8f62f6c24683fce65d75b0039, type: 3}
