%YAML 1.1
%TAG !u! tag:unity3d.com,2011:
--- !u!114 &11400000
MonoBehaviour:
  m_ObjectHideFlags: 0
  m_CorrespondingSourceObject: {fileID: 0}
  m_PrefabInstance: {fileID: 0}
  m_PrefabAsset: {fileID: 0}
  m_GameObject: {fileID: 0}
  m_Enabled: 1
  m_EditorHideFlags: 0
  m_Script: {fileID: 11500000, guid: a1ca69100a4ada74785f8a602973c134, type: 3}
  m_Name: 3
  m_EditorClassIdentifier: 
  questText: "\u0417\u043D\u0430\u044E\u0442 \u044D\u0442\u043E\u0442 \u0444\u0440\u0443\u043A\u0442
    \u0434\u0435\u0442\u0438\u0448\u043A\u0438,                                                                           
    \u041B\u044E\u0431\u044F\u0442 \u0435\u0441\u0442\u044C \u0435\u0433\u043E \u043C\u0430\u0440\u0442\u044B\u0448\u043A\u0438.                                                                                 
    \u0420\u043E\u0434\u043E\u043C \u043E\u043D \u0438\u0437 \u0436\u0430\u0440\u043A\u0438\u0445
    \u0441\u0442\u0440\u0430\u043D                                                                                           
    \u0412 \u0442\u0440\u043E\u043F\u0438\u043A\u0430\u0445 \u0440\u0430\u0441\u0442\u0435\u0442\u2026"
  answerText: "\u0411\u0430\u043D\u0430\u043D"
  answerIcon: {fileID: 21300000, guid: 1bdb3caaba7697a4e98e22d796a22ba6, type: 3}
