%YAML 1.1
%TAG !u! tag:unity3d.com,2011:
--- !u!114 &11400000
MonoBehaviour:
  m_ObjectHideFlags: 0
  m_CorrespondingSourceObject: {fileID: 0}
  m_PrefabInstance: {fileID: 0}
  m_PrefabAsset: {fileID: 0}
  m_GameObject: {fileID: 0}
  m_Enabled: 1
  m_EditorHideFlags: 0
  m_Script: {fileID: 11500000, guid: a1ca69100a4ada74785f8a602973c134, type: 3}
  m_Name: 41
  m_EditorClassIdentifier: 
  questText: "\u0414\u043B\u044F \u043B\u0435\u0447\u0435\u043D\u0438\u044F \u0431\u043E\u043B\u0435\u0437\u043D\u0435\u0439                                                                                 
    \u041E\u043D \u0432\u0441\u0435\u0445 \u0446\u0438\u0442\u0440\u0443\u0441\u043E\u0432
    \u043F\u043E\u043B\u0435\u0437\u043D\u0435\u0439.                                                                                  
    \u041E\u0447\u0435\u043D\u044C \u043A\u0438\u0441\u043B\u044B\u0439, \u0441\u043E\u0447\u043D\u044B\u0439
    \u043E\u043D.                                                                                   
    \u042D\u0442\u043E\u0442 \u0436\u0435\u043B\u0442\u044B\u0439 \u0444\u0440\u0443\u043A\u0442
    - \u2026"
  answerText: "\u041B\u0438\u043C\u043E\u043D"
  answerIcon: {fileID: 21300000, guid: 2bc2b858c8001f5429bcb982588cecbb, type: 3}
