%YAML 1.1
%TAG !u! tag:unity3d.com,2011:
--- !u!114 &11400000
MonoBehaviour:
  m_ObjectHideFlags: 0
  m_CorrespondingSourceObject: {fileID: 0}
  m_PrefabInstance: {fileID: 0}
  m_PrefabAsset: {fileID: 0}
  m_GameObject: {fileID: 0}
  m_Enabled: 1
  m_EditorHideFlags: 0
  m_Script: {fileID: 11500000, guid: a1ca69100a4ada74785f8a602973c134, type: 3}
  m_Name: 65
  m_EditorClassIdentifier: 
  questText: "\u0412 \u0434\u043B\u0438\u043D\u043D\u043E\u043C \u0434\u043E\u043C\u0438\u043A\u0435
    \u0437\u0435\u043B\u0435\u043D\u043E\u043C                                                                                     
    \u041C\u043D\u043E\u0433\u043E \u043A\u0440\u0443\u0433\u043B\u0435\u043D\u044C\u043A\u0438\u0445
    \u0440\u0435\u0431\u044F\u0442,                                                                                            
    \u041C\u0435\u0436 \u0441\u043E\u0431\u043E\u0439 \u043E\u043D\u0438 \u0437\u043D\u0430\u043A\u043E\u043C\u044B                                                                                                    
    \u0418 \u0432\u0441\u0435 \u0440\u044F\u0434\u044B\u0448\u043A\u043E\u043C \u0441\u0438\u0434\u044F\u0442. "
  answerText: "\u0413\u043E\u0440\u043E\u0445"
  answerIcon: {fileID: 21300000, guid: c5b23387f909f7a47af0556d0f7b4681, type: 3}
